                                            ><< <<    ><<        ><         ><<       ><<
   				          ><<    ><<  ><<       >< <<       >< ><<   ><<<
 				           ><<        ><<      ><  ><<      ><< ><< > ><<
   					     ><<      ><<     ><<   ><<     ><<  ><<  ><<
    					        ><<   ><<    ><<<<<< ><<    ><<   ><  ><<
				          ><<    ><<  ><<   ><<       ><<   ><<       ><<
 		         	            ><< <<    ><<  ><<         ><<  ><<       ><<
                            _                                                                                                                                                     
                          .' `'.__                                                                                                        
                         /      \ `'"-,                          /\                                           ,-.             __                                              
        .-''''--...__..-/ .     |      \                        /  \                                        ,'   `---.___.---'  `. 
      .'               ; :'     '.  a   |                      /    \                                     ,'   ,-                 `-._
     /                 | :.       \     =\                    /~~~~~~\                                  ,'    /                       \
    ;                   \':.      /  ,-.__;.-;`              /        \                              ,\/     /                        \\           
   /|     .              '--._   /-.7`._..-;`             __/)     /\  \                         )`._)>)     |                         \\           
  ; |       '                |`-'      \  =|             /    )         \___                     `>,'    _   \                  /       ||    
  |/\        .   -' /     /  ;         |  =/            /~~~~~~)            \                      )      \   |   |            |        |\\             
  (( ;.       ,_  .:|     | /     /\   | =|            /           /\        \            .   ,   /        \  |    `.          |        | ))        
   ) / `\     | `""`;     / |    | /   / =/      _____/           /  \        \__         \ `. \`-'          )-|      `.        |        /((               
     | ::|    |      \    \ \    \ `--' =/      /         /\                     \__       \ `-`   .`     _/  \ _     )`-.___.--\      /  `'   
    /  '/\    /       )    |/     `-...-`    __/         /  \                       \       `._         ,'     `j`.__/           `.    \                 
   /    | |  `\    /-'    /;                /           /    \            /\         \        / ,    ,'         \   /`             \   /        
   \  ,,/ |    \   D    .'  \              /                                          \       \__   /           _) (               _) (                
    `""`   \  nnh  D_.-'L__nnh             /____________________________________________\       `--'           /____\             /____\                 

                       
                      
                      
                    
                                          
                                       
                                       
                                     
                               
                              
                             
                                
                      
                       
                        
                         
                          
                          
                            
                 
                
              
             
       
      
   
  
